Alt
=========================
/org/prelle/rpgframework/chars/
  * chardir = Verweis auf das characters Verzeichnis
/org/prelle/rpgframework/online/social/
  /cospace
    * port
    * server
    * user
    * pass
/org/rpgframework/
  * datadir = .... anscheinend ungenutzt ...



Neu
=========================
/de
  /rpgframework
    * dataDir
      
      
/org/prelle/genesis-ng
 * installDir